<?xml version="1.0" encoding="UTF-8"?>
<!-- Created with Inkscape (http://www.inkscape.org/) -->
<svg width="672" height="270" version="1.1" viewBox="0 0 672 270" xmlns="http://www.w3.org/2000/svg">
 <rect x="-103.52" y="280.49" width="0" height="153.44" fill="none" stroke="#000" stroke-linecap="round" stroke-linejoin="round"/>
 <g fill-opacity=".99216">
  <path d="m97.895 33.895a62.5 112.5 0 0 0-35.395 101.11 62.5 112.5 0 0 0 35.25 100.98 62.5 112.5 0 0 0 35.25-100.98 62.5 112.5 0 0 0-35.105-101.11z" fill="#f60"/>
  <ellipse cx="300.75" cy="135" rx="62.5" ry="112.5" fill="#f60"/>
  <ellipse cx="363.25" cy="135" rx="62.5" ry="112.5" fill="#ffe600"/>
  <path d="m539 22.5a62.5 112.5 0 0 0-62.5 112.5 62.5 112.5 0 0 0 62.5 112.5 62.5 112.5 0 0 0 31.25-15.072 62.5 112.5 0 0 1-31.25-97.428 62.5 112.5 0 0 1 31.238-97.412 62.5 112.5 0 0 0-31.238-15.088zm31.238 15.088a62.5 112.5 0 0 1 31.262 97.412 62.5 112.5 0 0 1-31.25 97.428 62.5 112.5 0 0 0 31.25 15.072 62.5 112.5 0 0 0 62.5-112.5 62.5 112.5 0 0 0-62.5-112.5 62.5 112.5 0 0 0-31.262 15.088z" fill="#f60"/>
 </g>
 <path d="m446.12 142h-17.463v-14h17.463v-8.8333s27.471 15.368 27.471 15.833-27.471 15.833-27.471 15.833z" fill="none" stroke="#000" stroke-width="2"/>
 <path d="m190.63 142h17.463v-14h-17.463v-8.8333s-27.471 15.368-27.471 15.833 27.471 15.833 27.471 15.833z" fill="none" stroke="#000" stroke-width="2"/>
</svg>
