<?xml version="1.0" encoding="UTF-8"?>
<!-- Created with Inkscape (http://www.inkscape.org/) -->
<svg width="672" height="460" version="1.1" viewBox="0 0 672 460" xmlns="http://www.w3.org/2000/svg">
 <path transform="matrix(2.7245 0 0 2.7245 182.87 209.27)" d="m56.203 5.9627 11.012 30.721 32.62 0.98001-25.814 19.966 9.1481 31.326-26.966-18.381-26.966 18.381 9.1481-31.326-25.814-19.966 32.62-0.98001z" fill="#00d400" fill-rule="evenodd" style="paint-order:normal"/>
 <g fill="#80ffbf" fill-rule="evenodd">
  <path transform="matrix(2.7245 0 0 2.7245 182.87 209.27)" d="m56.203 11.84 11.012 24.843 27.03 2.7963-20.224 18.15 5.6933 26.571-23.511-13.626-23.511 13.626 5.6933-26.571-20.224-18.15 27.03-2.7963z" style="paint-order:normal"/>
  <path transform="matrix(2.7245 0 0 2.7245 -43.326 209.27)" d="m56.203 11.84 11.012 24.843 27.03 2.7963-20.224 18.15 5.6933 26.571-23.511-13.626-23.511 13.626 5.6933-26.571-20.224-18.15 27.03-2.7963z" style="paint-order:normal"/>
  <path transform="matrix(2.7245 0 0 2.7245 409.07 209.27)" d="m56.203 11.84 11.012 24.843 27.03 2.7963-20.224 18.15 5.6933 26.571-23.511-13.626-23.511 13.626 5.6933-26.571-20.224-18.15 27.03-2.7963z" style="paint-order:normal"/>
 </g>
 <path transform="matrix(2.7245 0 0 2.7245 409.07 209.27)" d="m56.203 22.343 11.012 14.34 17.041 6.0419-10.235 14.905-0.48014 18.074-17.338-5.1286-17.338 5.1286-0.48013-18.074-10.235-14.905 17.041-6.0419z" fill="#00d400" fill-rule="evenodd" style="paint-order:normal"/>
 <path transform="matrix(2.7245 0 0 2.7245 409.07 -10.943)" d="m56.203 11.84 16.403 17.423 21.639 10.217-11.501 20.984-3.0299 23.737-23.511-4.4535-23.511 4.4535-3.0299-23.737-11.501-20.984 21.639-10.217z" fill="#00d400" fill-rule="evenodd" style="paint-order:normal"/>
 <g fill="#80ffbf" fill-rule="evenodd">
  <path transform="matrix(2.7245 0 0 2.7245 182.87 -10.943)" d="m56.203 11.84 14.322 20.288 23.72 7.3516-14.869 19.89 0.33822 24.831-23.511-7.995-23.511 7.995 0.33823-24.831-14.869-19.89 23.72-7.3516z" style="paint-order:normal"/>
  <path transform="matrix(2.7245 0 0 2.7245 409.07 -10.943)" d="m56.203 11.84 11.012 24.843 27.03 2.7963-20.224 18.15 5.6933 26.571-23.511-13.626-23.511 13.626 5.6933-26.571-20.224-18.15 27.03-2.7963z" style="paint-order:normal"/>
  <path transform="matrix(2.7245 0 0 2.7245 -43.326 -10.943)" d="m56.203 11.84 11.012 24.843 27.03 2.7963-20.224 18.15 5.6933 26.571-23.511-13.626-23.511 13.626 5.6933-26.571-20.224-18.15 27.03-2.7963z" style="paint-order:normal"/>
 </g>
 <path transform="matrix(2.7245 0 0 2.7245 182.87 -10.943)" d="m56.203 11.84 6.3231 31.297 31.719-3.6577-27.811 15.685 13.28 29.036-23.511-21.603-23.511 21.603 13.28-29.036-27.811-15.685 31.719 3.6577z" fill="#00d400" fill-rule="evenodd" style="paint-order:normal"/>
</svg>
