<?xml version="1.0" encoding="UTF-8" standalone="no"?>
<svg xmlns:rdf="http://www.w3.org/1999/02/22-rdf-syntax-ns#" xmlns="http://www.w3.org/2000/svg" version="1.1" xmlns:cc="http://creativecommons.org/ns#" xmlns:xlink="http://www.w3.org/1999/xlink" viewBox="0 0 24 24" xmlns:dc="http://purl.org/dc/elements/1.1/">
<metadata>
<rdf:RDF>
<cc:Work rdf:about="">
<dc:format>image/svg+xml</dc:format>
<dc:type rdf:resource="http://purl.org/dc/dcmitype/StillImage"/>
</cc:Work>
</rdf:RDF>
</metadata>
<defs>
<linearGradient id="a">
<stop stop-color="#5eba69" offset="0"/>
<stop stop-color="#fff" offset="1"/>
</linearGradient>
<linearGradient id="c" y2="96.397" xlink:href="#a" gradientUnits="userSpaceOnUse" x2="-14.7622" gradientTransform="matrix(.89781 0 0 .89781 -.81747 10.4227)" y1="107.85" x1="-.535315"/>
<linearGradient id="b" y2="96.397" xlink:href="#a" gradientUnits="userSpaceOnUse" x2="-14.7622" gradientTransform="matrix(1.00712,0,0,1.00712,16.0574,-204.726)" y1="107.85" x1="-.535315"/>
</defs>
<g transform="translate(20,-90)">
<rect style="color:#000000" height="24" width="24" y="90" x="-20" stroke-width=".4532662" fill="none"/>
<rect style="color:#000000" fill-rule="evenodd" transform="scale(-1)" height="22.1569" width="22.1569" y="-113.076" x="-3.07859" stroke-width=".453266" fill="url(#b)"/>
<rect style="color:#000000" fill-rule="evenodd" height="19.7519" width="19.7519" y="92.1239" x="-17.876" stroke-width=".453266" fill="url(#c)"/>
<path stroke-linejoin="round" d="m-15.3527 96.3045 14.705346 11.3905" stroke="#3c3c3c" stroke-linecap="round" stroke-width="1px" fill="none"/>
<rect stroke-linejoin="round" style="color:#000000" fill-rule="evenodd" height="4.01786" width="4.0099" stroke="#000" stroke-linecap="round" stroke-miterlimit="0" y="94.8769" x="-16.184" fill="#fff"/>
<rect stroke-linejoin="round" style="color:#000000" fill-rule="evenodd" transform="matrix(1 0 0 .99644 12.2265 10.564)" height="4.01786" width="4.0099" stroke="#000" stroke-linecap="round" stroke-miterlimit="0" y="94.8769" x="-16.184" fill="#fff"/>
</g>
</svg>
