<?xml version="1.0" encoding="UTF-8" standalone="no"?>
<svg xmlns:rdf="http://www.w3.org/1999/02/22-rdf-syntax-ns#" xmlns="http://www.w3.org/2000/svg" version="1.1" xmlns:cc="http://creativecommons.org/ns#" xmlns:xlink="http://www.w3.org/1999/xlink" viewBox="0 0 24.069053 24" xmlns:dc="http://purl.org/dc/elements/1.1/">
<metadata>
<rdf:RDF>
<cc:Work rdf:about="">
<dc:format>image/svg+xml</dc:format>
<dc:type rdf:resource="http://purl.org/dc/dcmitype/StillImage"/>
</cc:Work>
</rdf:RDF>
</metadata>
<defs>
<linearGradient id="g" y2="178.0064" xlink:href="#a" gradientUnits="userSpaceOnUse" x2="452.4859" gradientTransform="matrix(.9975701 0 0 1.002994 1.42143 -.2844345)" y1="187.2543" x1="456.7332"/>
<linearGradient id="a">
<stop stop-color="#ffeb74" offset="0"/>
<stop stop-color="#fff" offset="1"/>
</linearGradient>
<linearGradient id="f" y2="180.2034" xlink:href="#a" gradientUnits="userSpaceOnUse" x2="454.0355" gradientTransform="matrix(.9975701 0 0 1.002994 1.42143 -.2844345)" y1="190.8572" x1="464.5001"/>
<linearGradient id="d" y2="191.2326" xlink:href="#a" gradientUnits="userSpaceOnUse" x2="98.80204" y1="197.6577" x1="102.7218"/>
<linearGradient id="b">
<stop stop-color="#5a5a5a" offset="0"/>
<stop offset="1"/>
</linearGradient>
<linearGradient id="h" y2="183.3223" xlink:href="#b" gradientUnits="userSpaceOnUse" x2="117.8272" gradientTransform="matrix(1.004126 0 0 .991974 339.8742 1.209495)" y1="174.4991" x1="110"/>
<linearGradient id="c" y2="195.8891" xlink:href="#b" gradientUnits="userSpaceOnUse" x2="101.695" y1="191.0442" x1="98.53114"/>
<linearGradient id="e" y2="190.2852" xlink:href="#a" gradientUnits="userSpaceOnUse" x2="99.93163" y1="199.9722" x1="109.2829"/>
</defs>
<g transform="translate(-450,-174)">
<g stroke-linejoin="round" stroke-linecap="round" stroke-miterlimit="0">
<path style="color:#000000" d="m462.0737 189.3155h-7.7714l-2.2203-7.5496 6.106-4.8532 6.1061 4.8532-2.2204 7.5496z" fill-rule="evenodd" stroke="url(#f)" stroke-width="1.0000002" fill="url(#g)"/>
<path style="color:#000000" d="m462.8716 190.3459h-9.368l-2.6767-8.8692 7.3607-5.7017 7.3608 5.7017-2.6767 8.8692z" stroke="url(#h)" stroke-width=".9999991" fill="none"/>
</g>
<rect style="color:#000000" height="24" width="24" y="174" x="450" stroke-width="1.0000001" fill="none"/>
<g stroke-width=".6782926" stroke-linecap="round" fill-rule="evenodd">
<path stroke-linejoin="round" style="color:#000000" d="m109.1123 194.2458-3.4876 2.2071-0.019 4.1272-3.1768-2.6349-3.93097 1.2577 1.52427-3.8355-2.41085-3.35 4.11875 0.2644 2.441-3.328 1.0213 3.9989z" transform="matrix(1.492696 -.0409829 .0399483 1.455015 302.9314 -91.01218)" stroke="url(#c)" stroke-miterlimit="0" fill="#fffbc5"/>
<path style="color:#000000" d="m107.5277 194.4445-2.569 1.6153-0.031 3.0747-2.3302-1.9442-2.93379 0.9204 1.12889-2.8168-1.78192-2.5058 3.02782 0.2032 1.8325-2.4691 0.7424 2.9425z" transform="matrix(1.492696 -.0409829 .0399483 1.455015 302.9314 -91.01218)" stroke="url(#e)" stroke-miterlimit="80" fill="url(#d)"/>
</g>
</g>
</svg>
