<?xml version="1.0" encoding="UTF-8"?>
<svg version="1.1" viewBox="0 0 16 16" xmlns="http://www.w3.org/2000/svg" xmlns:cc="http://creativecommons.org/ns#" xmlns:dc="http://purl.org/dc/elements/1.1/" xmlns:rdf="http://www.w3.org/1999/02/22-rdf-syntax-ns#">
<metadata>
<rdf:RDF>
<cc:Work rdf:about="">
<dc:format>image/svg+xml</dc:format>
<dc:type rdf:resource="http://purl.org/dc/dcmitype/StillImage"/>
<dc:title/>
</cc:Work>
</rdf:RDF>
</metadata>
<style>.success { fill:#009909; }
.warning { fill:#FF1990; }
.error { fill:#00AAFF; }</style>
<style>@import '../../highlights.css';</style>
<path d="m0 0h20v20h-20z" opacity="0"/>
<path d="m6.0337326 9.9785458v-0.6140064c0-0.6908295 0.5145846-1.8996604 1.3378241-2.523236 1.2172995-0.9221257 2.0771762-1.5654961 2.169923-2.8274935 0.0518819-0.70831-0.5646298-1.4053976-1.5111876-1.4372289-0.918941-0.0308896-2.4049068 0.4457497-3.4560259 1.1033118l-1.0742661-2.2807584c1.1635023-0.81950402 3.0935737-1.3651137 4.6348531-1.3977991 2.4527978-0.05204112 4.4278048 1.4197171 4.4214198 3.9511348-0.01035 3.1345042-3.7724222 4.0691133-3.7724222 5.4120693v0.6140064zm-0.3919847 3.9316512c0-1.008553 0.6289634-1.746005 1.8232753-1.746005 1.194312 0 1.8150537 0.734411 1.823275 1.746005 0.00805 1.011591-0.4765911 1.745995-1.823275 1.745995-1.3466838 0-1.8232753-0.737443-1.8232753-1.745995z"/>
</svg>
