<?xml version="1.0" encoding="UTF-8" standalone="no"?>
<svg xmlns:rdf="http://www.w3.org/1999/02/22-rdf-syntax-ns#" xmlns="http://www.w3.org/2000/svg" version="1.1" xmlns:cc="http://creativecommons.org/ns#" viewBox="0 0 15.504883 16.1231" xmlns:dc="http://purl.org/dc/elements/1.1/">
<metadata>
<rdf:RDF>
<cc:Work rdf:about="">
<dc:format>image/svg+xml</dc:format>
<dc:type rdf:resource="http://purl.org/dc/dcmitype/StillImage"/>
</cc:Work>
</rdf:RDF>
</metadata>
<g transform="translate(-932.49512,-29.6269)">
<path stroke-linejoin="round" d="m935 31.25v8.5" stroke="#3c3c3c" stroke-linecap="round" stroke-width="1px" fill="none"/>
<rect stroke-linejoin="round" style="color:#000000" fill-rule="evenodd" height="4.01786" width="4.0099" stroke="#000" stroke-linecap="round" stroke-miterlimit="0" y="30.1269" x="932.9951" fill="#fff"/>
<path style="color:#000000" d="m939 39 6-9" stroke="#0065ff" stroke-width="1px" fill="#c00000"/>
<circle style="color:#000000" stroke-width="1.1428572" fill-rule="evenodd" fill-opacity=".3921569" stroke-linecap="round" transform="matrix(.8749999 0 0 .875 282.6876 5.625)" stroke="#00f" cy="33" cx="753.5" r="2" fill="#6464ff"/>
<g stroke="#000" stroke-width="1px" transform="translate(1.5 .5)">
<path style="color:#000000" d="m943 37.5v3"/>
<path style="color:#000000" d="m943 41.5v3"/>
<path style="color:#000000" d="m939.5 41h3"/>
<path style="color:#000000" d="m943.5 41h3"/>
</g>
<circle style="color:#000000" stroke-width="1.1428572" fill-rule="evenodd" fill-opacity=".3921569" stroke-linecap="round" transform="matrix(.8749999 0 0 .875 277.1876 14.625)" stroke="#00f" cy="33" cx="753.5" r="2" fill="#6464ff"/>
</g>
</svg>
