<?xml version="1.0" encoding="UTF-8" standalone="no"?>
<svg xmlns:rdf="http://www.w3.org/1999/02/22-rdf-syntax-ns#" xmlns="http://www.w3.org/2000/svg" version="1.1" xmlns:cc="http://creativecommons.org/ns#" viewBox="0 0 16 16" xmlns:dc="http://purl.org/dc/elements/1.1/">
<metadata>
<rdf:RDF>
<cc:Work rdf:about="">
<dc:format>image/svg+xml</dc:format>
<dc:type rdf:resource="http://purl.org/dc/dcmitype/StillImage"/>
</cc:Work>
</rdf:RDF>
</metadata>
<g transform="translate(-319.64981,-108.194)">
<rect style="color:#000000" fill-opacity="0" height="16" width="16" y="108.194" x="319.6498" stroke-width=".9868108"/>
<ellipse stroke-linejoin="round" style="color:#000000" fill-rule="evenodd" fill-opacity=".7019608" rx="3.963478" transform="matrix(1.659594,0,0,1.626301,-232.2048,-148.9271)" stroke="#000" ry="4.113043" cy="163.0209" cx="337.3443" stroke-miterlimit="0" stroke-width=".6086935" fill="#99b7d6"/>
<ellipse stroke-linejoin="round" style="color:#000000" rx="3.963478" transform="matrix(1.101789,0,0,1.080243,-44.03243,-59.90819)" stroke="#c80000" ry="4.113043" cy="163.0209" cx="337.3443" stroke-miterlimit="0" stroke-dasharray="0.9166215, 0.9166215" stroke-width=".9166215" fill="none"/>
</g>
</svg>
